lab01/waveform1.vcd
$date
	Wed May 20 21:57:48 2026
$end
$version
	Icarus Verilog
$end
$timescale
	1ps
$end
$scope module tb $end
$var wire 10 ! out [9:0] $end
$var reg 1 " en $end
$var reg 20 # en_seq [19:0] $end
$var reg 10 $ filt_constant1 [9:0] $end
$var reg 1 % filter_en $end
$var reg 10 & in1 [9:0] $end
$var reg 1 ' rst $end
$var reg 1 ( sample_clk $end
$var integer 32 ) fp [31:0] $end
$var integer 32 * fp2 [31:0] $end
$var integer 32 + status [31:0] $end
$scope module DUT $end
$var wire 1 ( CLK $end
$var wire 1 " EN $end
$var wire 1 % FILT_SHIFT $end
$var wire 1 ' RSTN $end
$var wire 10 , filt_constant [9:0] $end
$var wire 10 - in [9:0] $end
$var reg 10 . in2 [9:0] $end
$var reg 10 / out [9:0] $end
$scope begin dsp02[0] $end
$var parameter 2 0 i $end
$upscope $end
$scope begin dsp02[1] $end
$var parameter 2 1 i $end
$upscope $end
$scope begin dsp02[2] $end
$var parameter 3 2 i $end
$upscope $end
$scope begin dsp02[3] $end
$var parameter 3 3 i $end
$upscope $end
$scope begin dsp02[4] $end
$var parameter 4 4 i $end
$upscope $end
$scope begin dsp02[5] $end
$var parameter 4 5 i $end
$upscope $end
$scope begin dsp02[6] $end
$var parameter 4 6 i $end
$upscope $end
$scope begin dsp02[7] $end
$var parameter 4 7 i $end
$upscope $end
$scope begin dsp02[8] $end
$var parameter 5 8 i $end
$upscope $end
$scope begin dsp02[9] $end
$var parameter 5 9 i $end
$upscope $end
$scope begin dsp02[10] $end
$var parameter 5 : i $end
$upscope $end
$scope begin dsp02[11] $end
$var parameter 5 ; i $end
$upscope $end
$scope begin dsp02[12] $end
$var parameter 5 < i $end
$upscope $end
$scope begin dsp02[13] $end
$var parameter 5 = i $end
$upscope $end
$scope begin dsp02[14] $end
$var parameter 5 > i $end
$upscope $end
$scope begin dsp02[15] $end
$var parameter 5 ? i $end
$upscope $end
$scope begin dsp02[16] $end
$var parameter 6 @ i $end
$upscope $end
$scope begin dsp02[17] $end
$var parameter 6 A i $end
$upscope $end
$scope begin dsp02[18] $end
$var parameter 6 B i $end
$upscope $end
$scope begin dsp02[19] $end
$var parameter 6 C i $end
$upscope $end
$scope begin dsp02[20] $end
$var parameter 6 D i $end
$upscope $end
$scope begin dsp02[21] $end
$var parameter 6 E i $end
$upscope $end
$scope begin dsp02[22] $end
$var parameter 6 F i $end
$upscope $end
$scope begin dsp02[23] $end
$var parameter 6 G i $end
$upscope $end
$scope begin dsp02[24] $end
$var parameter 6 H i $end
$upscope $end
$scope begin dsp02[25] $end
$var parameter 6 I i $end
$upscope $end
$scope begin dsp02[26] $end
$var parameter 6 J i $end
$upscope $end
$scope begin dsp02[27] $end
$var parameter 6 K i $end
$upscope $end
$scope begin dsp02[28] $end
$var parameter 6 L i $end
$upscope $end
$scope begin dsp02[29] $end
$var parameter 6 M i $end
$upscope $end
$scope begin dsp02[30] $end
$var parameter 6 N i $end
$upscope $end
$scope begin dsp02[31] $end
$var parameter 6 O i $end
$upscope $end
$scope begin dsp02[32] $end
$var parameter 7 P i $end
$upscope $end
$scope begin dsp02[33] $end
$var parameter 7 Q i $end
$upscope $end
$scope begin dsp02[34] $end
$var parameter 7 R i $end
$upscope $end
$scope begin dsp02[35] $end
$var parameter 7 S i $end
$upscope $end
$scope begin dsp02[36] $end
$var parameter 7 T i $end
$upscope $end
$scope begin dsp02[37] $end
$var parameter 7 U i $end
$upscope $end
$scope begin dsp02[38] $end
$var parameter 7 V i $end
$upscope $end
$scope begin dsp02[39] $end
$var parameter 7 W i $end
$upscope $end
$scope begin dsp02[40] $end
$var parameter 7 X i $end
$upscope $end
$scope begin dsp02[41] $end
$var parameter 7 Y i $end
$upscope $end
$scope begin dsp02[42] $end
$var parameter 7 Z i $end
$upscope $end
$scope begin dsp02[43] $end
$var parameter 7 [ i $end
$upscope $end
$scope begin dsp02[44] $end
$var parameter 7 \ i $end
$upscope $end
$scope begin dsp02[45] $end
$var parameter 7 ] i $end
$upscope $end
$scope begin dsp02[46] $end
$var parameter 7 ^ i $end
$upscope $end
$scope begin dsp02[47] $end
$var parameter 7 _ i $end
$upscope $end
$scope begin dsp02[48] $end
$var parameter 7 ` i $end
$upscope $end
$scope begin dsp02[49] $end
$var parameter 7 a i $end
$upscope $end
$scope begin dsp02[50] $end
$var parameter 7 b i $end
$upscope $end
$scope begin dsp02[51] $end
$var parameter 7 c i $end
$upscope $end
$scope begin dsp02[52] $end
$var parameter 7 d i $end
$upscope $end
$scope begin dsp02[53] $end
$var parameter 7 e i $end
$upscope $end
$scope begin dsp02[54] $end
$var parameter 7 f i $end
$upscope $end
$scope begin dsp02[55] $end
$var parameter 7 g i $end
$upscope $end
$scope begin dsp02[56] $end
$var parameter 7 h i $end
$upscope $end
$scope begin dsp02[57] $end
$var parameter 7 i i $end
$upscope $end
$scope begin dsp02[58] $end
$var parameter 7 j i $end
$upscope $end
$scope begin dsp02[59] $end
$var parameter 7 k i $end
$upscope $end
$scope begin dsp02[60] $end
$var parameter 7 l i $end
$upscope $end
$scope begin dsp02[61] $end
$var parameter 7 m i $end
$upscope $end
$scope begin dsp02[62] $end
$var parameter 7 n i $end
$upscope $end
$upscope $end
$scope begin $ivl_for_loop0 $end
$var integer 32 o p [31:0] $end
$upscope $end
$scope begin $ivl_for_loop1 $end
$var integer 32 p i [31:0] $end
$upscope $end
$upscope $end
$enddefinitions $end
$comment Show the parameter values. $end
$dumpall
b111110 n
b111101 m
b111100 l
b111011 k
b111010 j
b111001 i
b111000 h
b110111 g
b110110 f
b110101 e
b110100 d
b110011 c
b110010 b
b110001 a
b110000 `
b101111 _
b101110 ^
b101101 ]
b101100 \
b101011 [
b101010 Z
b101001 Y
b101000 X
b100111 W
b100110 V
b100101 U
b100100 T
b100011 S
b100010 R
b100001 Q
b100000 P
b11111 O
b11110 N
b11101 M
b11100 L
b11011 K
b11010 J
b11001 I
b11000 H
b10111 G
b10110 F
b10101 E
b10100 D
b10011 C
b10010 B
b10001 A
b10000 @
b1111 ?
b1110 >
b1101 =
b1100 <
b1011 ;
b1010 :
b1001 9
b1000 8
b111 7
b110 6
b101 5
b100 4
b11 3
b10 2
b1 1
b0 0
$end
#0
$dumpvars
b0 p
b0 o
bx /
bx .
bx -
bx ,
bx +
bx *
bx )
0(
0'
bx &
1%
bx $
b11010001000010100010 #
1"
bx !
$end
#1000
b0 .
b0 !
b0 /
1(
#2000
0(
#3000
1'
#4000
bx .
1(
b11111111111111111111111111111111 +
b0 )
#5000
0(
#6000
1(
b1 o
#7000
0(
#8000
bx !
bx /
1(
b10 o
#9000
0(
#10000
1(
b11 o
#11000
0(
#12000
1(
b100 o
#13000
0(
#14000
1(
b101 o
#15000
0(
#16000
1(
b110 o
#17000
0(
#18000
1(
b111 o
#19000
0(
#20000
1(
b1000 o
#21000
0(
#22000
1(
b1001 o
#23000
0(
#24000
1(
b1010 o
#25000
0(
#26000
1(
b1011 o
#27000
0(
#28000
1(
b1100 o
#29000
0(
#30000
1(
b1101 o
#31000
0(
#32000
1(
b1110 o
#33000
0(
#34000
1(
b1111 o
#35000
0(
#36000
1(
b10000 o
#37000
0(
#38000
1(
b10001 o
#39000
0(
#40000
1(
b10010 o
#41000
0(
#42000
1(
b10011 o
#43000
0(
#44000
1(
b10100 o
#45000
0(
#46000
1(
b10101 o
#47000
0(
#48000
1(
b10110 o
#49000
0(
#50000
1(
b10111 o
#51000
0(
#52000
1(
b11000 o
#53000
0(
#54000
1(
b11001 o
#55000
0(
#56000
1(
b11010 o
#57000
0(
#58000
1(
b11011 o
#59000
0(
#60000
1(
b11100 o
#61000
0(
#62000
1(
b11101 o
#63000
0(
#64000
1(
b11110 o
#65000
0(
#66000
1(
b11111 o
#67000
0(
#68000
1(
b100000 o
#69000
0(
#70000
1(
b100001 o
#71000
0(
#72000
1(
b100010 o
#73000
0(
#74000
1(
b100011 o
#75000
0(
#76000
1(
b100100 o
#77000
0(
#78000
1(
b100101 o
#79000
0(
#80000
1(
b100110 o
#81000
0(
#82000
1(
b100111 o
#83000
0(
#84000
1(
b101000 o
#85000
0(
#86000
1(
b101001 o
#87000
0(
#88000
1(
b101010 o
#89000
0(
#90000
1(
b101011 o
#91000
0(
#92000
1(
b101100 o
#93000
0(
#94000
1(
b101101 o
#95000
0(
#96000
1(
b101110 o
#97000
0(
#98000
1(
b101111 o
#99000
0(
#100000
1(
b110000 o
#101000
0(
#102000
1(
b110001 o
#103000
0(
#104000
1(
b110010 o
#105000
0(
#106000
1(
b110011 o
#107000
0(
#108000
1(
b110100 o
#109000
0(
#110000
1(
b110101 o
#111000
0(
#112000
1(
b110110 o
#113000
0(
#114000
1(
b110111 o
#115000
0(
#116000
1(
b111000 o
#117000
0(
#118000
1(
b111001 o
#119000
0(
#120000
1(
b111010 o
#121000
0(
#122000
1(
b111011 o
#123000
0(
#124000
1(
b111100 o
#125000
0(
#126000
1(
b111101 o
#127000
0(
#128000
1(
b111110 o
#129000
0(
#130000
1(
b1 +
b0 &
b0 -
0%
0"
b10000000000000000000000000000100 *
b10000000000000000000000000000011 )
b111111 o
#131000
0(
#132000
1(
b111111111 &
b111111111 -
#133000
0(
#134000
1(
b10011010 &
b10011010 -
#135000
0(
#136000
1(
b1001100000 &
b1001100000 -
#137000
0(
#138000
1(
b1100000111 &
b1100000111 -
#139000
0(
#140000
1(
b100000110 &
b100000110 -
#141000
0(
#142000
1(
b11111001 &
b11111001 -
#143000
0(
#144000
1(
b1110010100 &
b1110010100 -
#145000
0(
#146000
1(
b1101100110 &
b1101100110 -
#147000
0(
#148000
1(
b1101 &
b1101 -
#149000
0(
#150000
1(
b0 &
b0 -
#151000
0(
#152000
1(
b1111110011 &
b1111110011 -
#153000
0(
#154000
1(
b10011010 &
b10011010 -
#155000
0(
#156000
1(
b1101100 &
b1101100 -
#157000
0(
#158000
1(
b1100000111 &
b1100000111 -
#159000
0(
#160000
1(
b1011111010 &
b1011111010 -
#161000
0(
#162000
1(
b11111001 &
b11111001 -
#163000
0(
#164000
1(
b110100000 &
b110100000 -
#165000
0(
#166000
1(
b1101100110 &
b1101100110 -
#167000
0(
#168000
1(
b1000000001 &
b1000000001 -
#169000
0(
#170000
1(
b0 &
b0 -
#171000
0(
#172000
1(
b111111111 &
b111111111 -
#173000
0(
#174000
1(
b10011010 &
b10011010 -
#175000
0(
#176000
1(
b1001100000 &
b1001100000 -
#177000
0(
#178000
1(
b1100000111 &
b1100000111 -
#179000
0(
#180000
1(
b100000110 &
b100000110 -
#181000
0(
#182000
1(
b11111001 &
b11111001 -
#183000
0(
#184000
1(
b1110010100 &
b1110010100 -
#185000
0(
#186000
1(
b1101100110 &
b1101100110 -
#187000
0(
#188000
1(
b1101 &
b1101 -
#189000
0(
#190000
1(
b0 &
b0 -
#191000
0(
#192000
1(
b1111110011 &
b1111110011 -
#193000
0(
#194000
1(
b10011010 &
b10011010 -
#195000
0(
#196000
1(
b1101100 &
b1101100 -
#197000
0(
#198000
1(
b1100000111 &
b1100000111 -
#199000
0(
#200000
1(
b1011111010 &
b1011111010 -
#201000
0(
#202000
1(
b11111001 &
b11111001 -
#203000
0(
#204000
1(
b110100000 &
b110100000 -
#205000
0(
#206000
1(
b1101100110 &
b1101100110 -
#207000
0(
#208000
1(
b1000000001 &
b1000000001 -
#209000
0(
#210000
1(
b0 &
b0 -
#211000
0(
#212000
1(
b111111111 &
b111111111 -
#213000
0(
#214000
1(
b10011010 &
b10011010 -
#215000
0(
#216000
1(
b1001100000 &
b1001100000 -
#217000
0(
#218000
1(
b1100000111 &
b1100000111 -
#219000
0(
#220000
1(
b100000110 &
b100000110 -
#221000
0(
#222000
1(
b11111001 &
b11111001 -
#223000
0(
#224000
1(
b1110010100 &
b1110010100 -
#225000
0(
#226000
1(
b1101100110 &
b1101100110 -
#227000
0(
#228000
1(
b1101 &
b1101 -
#229000
0(
#230000
1(
b0 &
b0 -
#231000
0(
#232000
1(
b1111110011 &
b1111110011 -
#233000
0(
#234000
1(
b10011010 &
b10011010 -
#235000
0(
#236000
1(
b1101100 &
b1101100 -
#237000
0(
#238000
1(
b1100000111 &
b1100000111 -
#239000
0(
#240000
1(
b1011111010 &
b1011111010 -
#241000
0(
#242000
1(
b11111001 &
b11111001 -
#243000
0(
#244000
1(
b110100000 &
b110100000 -
#245000
0(
#246000
1(
b1101100110 &
b1101100110 -
#247000
0(
#248000
1(
b1000000001 &
b1000000001 -
#249000
0(
#250000
1(
b0 &
b0 -
#251000
0(
#252000
1(
b111111111 &
b111111111 -
#253000
0(
#254000
1(
b10011010 &
b10011010 -
#255000
0(
#256000
1(
b1001100000 &
b1001100000 -
#257000
0(
#258000
1(
b1100000111 &
b1100000111 -
#259000
0(
#260000
1(
b100000110 &
b100000110 -
#261000
0(
#262000
1(
b11111001 &
b11111001 -
#263000
0(
#264000
1(
b1110010100 &
b1110010100 -
#265000
0(
#266000
1(
b1101100110 &
b1101100110 -
#267000
0(
#268000
1(
b1101 &
b1101 -
#269000
0(
#270000
1(
b0 &
b0 -
#271000
0(
#272000
1(
b1111110011 &
b1111110011 -
#273000
0(
#274000
1(
b10011010 &
b10011010 -
#275000
0(
#276000
1(
b1101100 &
b1101100 -
#277000
0(
#278000
1(
b1100000111 &
b1100000111 -
#279000
0(
#280000
1(
b1011111010 &
b1011111010 -
#281000
0(
#282000
1(
b11111001 &
b11111001 -
#283000
0(
#284000
1(
b110100000 &
b110100000 -
#285000
0(
#286000
1(
b1101100110 &
b1101100110 -
#287000
0(
#288000
1(
b1000000001 &
b1000000001 -
#289000
0(
#290000
1(
b0 &
b0 -
#291000
0(
#292000
1(
b111111111 &
b111111111 -
#293000
0(
#294000
1(
b10011010 &
b10011010 -
#295000
0(
#296000
1(
b1001100000 &
b1001100000 -
#297000
0(
#298000
1(
b1100000111 &
b1100000111 -
#299000
0(
#300000
1(
b100000110 &
b100000110 -
#301000
0(
#302000
1(
b11111001 &
b11111001 -
#303000
0(
#304000
1(
b1110010100 &
b1110010100 -
#305000
0(
#306000
1(
b1101100110 &
b1101100110 -
#307000
0(
#308000
1(
b1101 &
b1101 -
#309000
0(
#310000
1(
b0 &
b0 -
#311000
0(
#312000
1(
b1111110011 &
b1111110011 -
#313000
0(
#314000
1(
b10011010 &
b10011010 -
#315000
0(
#316000
1(
b1101100 &
b1101100 -
#317000
0(
#318000
1(
b1100000111 &
b1100000111 -
#319000
0(
#320000
1(
b1011111010 &
b1011111010 -
#321000
0(
#322000
1(
b11111001 &
b11111001 -
#323000
0(
#324000
1(
b110100000 &
b110100000 -
#325000
0(
#326000
1(
b1101100110 &
b1101100110 -
#327000
0(
#328000
1(
b1000000001 &
b1000000001 -
#329000
0(
#330000
1(
b0 &
b0 -
#331000
0(
#332000
1(
b111111111 &
b111111111 -
#333000
0(
#334000
1(
b10011010 &
b10011010 -
#335000
0(
#336000
1(
b1001100000 &
b1001100000 -
#337000
0(
#338000
1(
b1100000111 &
b1100000111 -
#339000
0(
#340000
1(
b100000110 &
b100000110 -
#341000
0(
#342000
1(
b11111001 &
b11111001 -
#343000
0(
#344000
1(
b1110010100 &
b1110010100 -
#345000
0(
#346000
1(
b1101100110 &
b1101100110 -
#347000
0(
#348000
1(
b1101 &
b1101 -
#349000
0(
#350000
1(
b0 &
b0 -
#351000
0(
#352000
1(
b1111110011 &
b1111110011 -
#353000
0(
#354000
1(
b10011010 &
b10011010 -
#355000
0(
#356000
1(
b1101100 &
b1101100 -
#357000
0(
#358000
1(
b1100000111 &
b1100000111 -
#359000
0(
#360000
1(
b1011111010 &
b1011111010 -
#361000
0(
#362000
1(
b11111001 &
b11111001 -
#363000
0(
#364000
1(
b110100000 &
b110100000 -
#365000
0(
#366000
1(
b1101100110 &
b1101100110 -
#367000
0(
#368000
1(
b1000000001 &
b1000000001 -
#369000
0(
#370000
1(
b0 &
b0 -
#371000
0(
#372000
1(
b111111111 &
b111111111 -
#373000
0(
#374000
1(
b10011010 &
b10011010 -
#375000
0(
#376000
1(
b1001100000 &
b1001100000 -
#377000
0(
#378000
1(
b1100000111 &
b1100000111 -
#379000
0(
#380000
1(
b100000110 &
b100000110 -
#381000
0(
#382000
1(
b11111001 &
b11111001 -
#383000
0(
#384000
1(
b1110010100 &
b1110010100 -
#385000
0(
#386000
1(
b1101100110 &
b1101100110 -
#387000
0(
#388000
1(
b1101 &
b1101 -
#389000
0(
#390000
1(
b0 &
b0 -
#391000
0(
#392000
1(
b1111110011 &
b1111110011 -
#393000
0(
#394000
1(
b10011010 &
b10011010 -
#395000
0(
#396000
1(
b1101100 &
b1101100 -
#397000
0(
#398000
1(
b1100000111 &
b1100000111 -
#399000
0(
#400000
1(
b1011111010 &
b1011111010 -
#401000
0(
#402000
1(
b11111001 &
b11111001 -
#403000
0(
#404000
1(
b110100000 &
b110100000 -
#405000
0(
#406000
1(
b1101100110 &
b1101100110 -
#407000
0(
#408000
1(
b1000000001 &
b1000000001 -
#409000
0(
#410000
1(
b0 &
b0 -
#411000
0(
#412000
1(
b111111111 &
b111111111 -
#413000
0(
#414000
1(
b10011010 &
b10011010 -
#415000
0(
#416000
1(
b1001100000 &
b1001100000 -
#417000
0(
#418000
1(
b1100000111 &
b1100000111 -
#419000
0(
#420000
1(
b100000110 &
b100000110 -
#421000
0(
#422000
1(
b11111001 &
b11111001 -
#423000
0(
#424000
1(
b1110010100 &
b1110010100 -
#425000
0(
#426000
1(
b1101100110 &
b1101100110 -
#427000
0(
#428000
1(
b1101 &
b1101 -
#429000
0(
#430000
1(
b0 &
b0 -
#431000
0(
#432000
1(
b1111110011 &
b1111110011 -
#433000
0(
#434000
1(
b10011010 &
b10011010 -
#435000
0(
#436000
1(
b1101100 &
b1101100 -
#437000
0(
#438000
1(
b1100000111 &
b1100000111 -
#439000
0(
#440000
1(
b1011111010 &
b1011111010 -
#441000
0(
#442000
1(
b11111001 &
b11111001 -
#443000
0(
#444000
1(
b110100000 &
b110100000 -
#445000
0(
#446000
1(
b1101100110 &
b1101100110 -
#447000
0(
#448000
1(
b1000000001 &
b1000000001 -
#449000
0(
#450000
1(
b0 +
#451000
0(
#452000
b0 .
1(
b1 +
b0 &
b0 -
1"
b1 p
#453000
0(
#454000
b111111111 .
1(
b111111111 &
b111111111 -
#455000
0(
#456000
b10011010 .
1(
b10011010 &
b10011010 -
#457000
0(
#458000
b1001100000 .
1(
b1001100000 &
b1001100000 -
#459000
0(
#460000
b1100000111 .
1(
b1100000111 &
b1100000111 -
#461000
0(
#462000
b100000110 .
1(
b100000110 &
b100000110 -
#463000
0(
#464000
b11111001 .
1(
b11111001 &
b11111001 -
#465000
0(
#466000
b1110010100 .
1(
b1110010100 &
b1110010100 -
#467000
0(
#468000
b1101100110 .
1(
b1101100110 &
b1101100110 -
#469000
0(
#470000
b1101 .
1(
b1101 &
b1101 -
#471000
0(
#472000
b0 .
1(
b0 &
b0 -
#473000
0(
#474000
b1111110011 .
1(
b1111110011 &
b1111110011 -
#475000
0(
#476000
b10011010 .
1(
b10011010 &
b10011010 -
#477000
0(
#478000
b1101100 .
1(
b1101100 &
b1101100 -
#479000
0(
#480000
b1100000111 .
1(
b1100000111 &
b1100000111 -
#481000
0(
#482000
b1011111010 .
1(
b1011111010 &
b1011111010 -
#483000
0(
#484000
b11111001 .
1(
b11111001 &
b11111001 -
#485000
0(
#486000
b110100000 .
1(
b110100000 &
b110100000 -
#487000
0(
#488000
b1101100110 .
1(
b1101100110 &
b1101100110 -
#489000
0(
#490000
b1000000001 .
1(
b1000000001 &
b1000000001 -
#491000
0(
#492000
b0 .
1(
b0 &
b0 -
#493000
0(
#494000
b111111111 .
1(
b111111111 &
b111111111 -
#495000
0(
#496000
b10011010 .
1(
b10011010 &
b10011010 -
#497000
0(
#498000
b1001100000 .
1(
b1001100000 &
b1001100000 -
#499000
0(
#500000
b1100000111 .
1(
b1100000111 &
b1100000111 -
#501000
0(
#502000
b100000110 .
1(
b100000110 &
b100000110 -
#503000
0(
#504000
b11111001 .
1(
b11111001 &
b11111001 -
#505000
0(
#506000
b1110010100 .
1(
b1110010100 &
b1110010100 -
#507000
0(
#508000
b1101100110 .
1(
b1101100110 &
b1101100110 -
#509000
0(
#510000
b1101 .
1(
b1101 &
b1101 -
#511000
0(
#512000
b0 .
1(
b0 &
b0 -
#513000
0(
#514000
b1111110011 .
1(
b1111110011 &
b1111110011 -
#515000
0(
#516000
b10011010 .
1(
b10011010 &
b10011010 -
#517000
0(
#518000
b1101100 .
1(
b1101100 &
b1101100 -
#519000
0(
#520000
b1100000111 .
1(
b1100000111 &
b1100000111 -
#521000
0(
#522000
b1011111010 .
1(
b1011111010 &
b1011111010 -
#523000
0(
#524000
b11111001 .
1(
b11111001 &
b11111001 -
#525000
0(
#526000
b110100000 .
1(
b110100000 &
b110100000 -
#527000
0(
#528000
b1101100110 .
1(
b1101100110 &
b1101100110 -
#529000
0(
#530000
b1000000001 .
1(
b1000000001 &
b1000000001 -
#531000
0(
#532000
b0 .
1(
b0 &
b0 -
#533000
0(
#534000
b111111111 .
1(
b111111111 &
b111111111 -
#535000
0(
#536000
b10011010 .
1(
b10011010 &
b10011010 -
#537000
0(
#538000
b1001100000 .
1(
b1001100000 &
b1001100000 -
#539000
0(
#540000
b1100000111 .
1(
b1100000111 &
b1100000111 -
#541000
0(
#542000
b100000110 .
1(
b100000110 &
b100000110 -
#543000
0(
#544000
b11111001 .
1(
b11111001 &
b11111001 -
#545000
0(
#546000
b1110010100 .
1(
b1110010100 &
b1110010100 -
#547000
0(
#548000
b1101100110 .
1(
b1101100110 &
b1101100110 -
#549000
0(
#550000
b1101 .
1(
b1101 &
b1101 -
#551000
0(
#552000
b0 .
1(
b0 &
b0 -
#553000
0(
#554000
b1111110011 .
1(
b1111110011 &
b1111110011 -
#555000
0(
#556000
b10011010 .
1(
b10011010 &
b10011010 -
#557000
0(
#558000
b1101100 .
1(
b1101100 &
b1101100 -
#559000
0(
#560000
b1100000111 .
1(
b1100000111 &
b1100000111 -
#561000
0(
#562000
b1011111010 .
1(
b1011111010 &
b1011111010 -
#563000
0(
#564000
b11111001 .
1(
b11111001 &
b11111001 -
#565000
0(
#566000
b110100000 .
1(
b110100000 &
b110100000 -
#567000
0(
#568000
b1101100110 .
1(
b1101100110 &
b1101100110 -
#569000
0(
#570000
b1000000001 .
1(
b1000000001 &
b1000000001 -
#571000
0(
#572000
b0 .
1(
b0 &
b0 -
#573000
0(
#574000
b111111111 .
1(
b111111111 &
b111111111 -
#575000
0(
#576000
b10011010 .
1(
b10011010 &
b10011010 -
#577000
0(
#578000
b1001100000 .
1(
b1001100000 &
b1001100000 -
#579000
0(
#580000
b1100000111 .
1(
b1100000111 &
b1100000111 -
#581000
0(
#582000
b100000110 .
1(
b100000110 &
b100000110 -
#583000
0(
#584000
b11111001 .
1(
b11111001 &
b11111001 -
#585000
0(
#586000
b1110010100 .
1(
b1110010100 &
b1110010100 -
#587000
0(
#588000
b1101100110 .
1(
b1101100110 &
b1101100110 -
#589000
0(
#590000
b1101 .
1(
b1101 &
b1101 -
#591000
0(
#592000
b0 .
1(
b0 &
b0 -
#593000
0(
#594000
b1111110011 .
1(
b1111110011 &
b1111110011 -
#595000
0(
#596000
b10011010 .
1(
b10011010 &
b10011010 -
#597000
0(
#598000
b1101100 .
1(
b1101100 &
b1101100 -
#599000
0(
#600000
b1100000111 .
1(
b1100000111 &
b1100000111 -
#601000
0(
#602000
b1011111010 .
1(
b1011111010 &
b1011111010 -
#603000
0(
#604000
b11111001 .
1(
b11111001 &
b11111001 -
#605000
0(
#606000
b110100000 .
1(
b110100000 &
b110100000 -
#607000
0(
#608000
b1101100110 .
1(
b1101100110 &
b1101100110 -
#609000
0(
#610000
b1000000001 .
1(
b1000000001 &
b1000000001 -
#611000
0(
#612000
b0 .
1(
b0 &
b0 -
#613000
0(
#614000
b111111111 .
1(
b111111111 &
b111111111 -
#615000
0(
#616000
b10011010 .
1(
b10011010 &
b10011010 -
#617000
0(
#618000
b1001100000 .
1(
b1001100000 &
b1001100000 -
#619000
0(
#620000
b1100000111 .
1(
b1100000111 &
b1100000111 -
#621000
0(
#622000
b100000110 .
1(
b100000110 &
b100000110 -
#623000
0(
#624000
b11111001 .
1(
b11111001 &
b11111001 -
#625000
0(
#626000
b1110010100 .
1(
b1110010100 &
b1110010100 -
#627000
0(
#628000
b1101100110 .
1(
b1101100110 &
b1101100110 -
#629000
0(
#630000
b1101 .
1(
b1101 &
b1101 -
#631000
0(
#632000
b0 .
1(
b0 &
b0 -
#633000
0(
#634000
b1111110011 .
1(
b1111110011 &
b1111110011 -
#635000
0(
#636000
b10011010 .
1(
b10011010 &
b10011010 -
#637000
0(
#638000
b1101100 .
1(
b1101100 &
b1101100 -
#639000
0(
#640000
b1100000111 .
1(
b1100000111 &
b1100000111 -
#641000
0(
#642000
b1011111010 .
1(
b1011111010 &
b1011111010 -
#643000
0(
#644000
b11111001 .
1(
b11111001 &
b11111001 -
#645000
0(
#646000
b110100000 .
1(
b110100000 &
b110100000 -
#647000
0(
#648000
b1101100110 .
1(
b1101100110 &
b1101100110 -
#649000
0(
#650000
b1000000001 .
1(
b1000000001 &
b1000000001 -
#651000
0(
#652000
b0 .
1(
b0 &
b0 -
#653000
0(
#654000
b111111111 .
1(
b111111111 &
b111111111 -
#655000
0(
#656000
b10011010 .
1(
b10011010 &
b10011010 -
#657000
0(
#658000
b1001100000 .
1(
b1001100000 &
b1001100000 -
#659000
0(
#660000
b1100000111 .
1(
b1100000111 &
b1100000111 -
#661000
0(
#662000
b100000110 .
1(
b100000110 &
b100000110 -
#663000
0(
#664000
b11111001 .
1(
b11111001 &
b11111001 -
#665000
0(
#666000
b1110010100 .
1(
b1110010100 &
b1110010100 -
#667000
0(
#668000
b1101100110 .
1(
b1101100110 &
b1101100110 -
#669000
0(
#670000
b1101 .
1(
b1101 &
b1101 -
#671000
0(
#672000
b0 .
1(
b0 &
b0 -
#673000
0(
#674000
b1111110011 .
1(
b1111110011 &
b1111110011 -
#675000
0(
#676000
b10011010 .
1(
b10011010 &
b10011010 -
#677000
0(
#678000
b1101100 .
1(
b1101100 &
b1101100 -
#679000
0(
#680000
b1100000111 .
1(
b1100000111 &
b1100000111 -
#681000
0(
#682000
b1011111010 .
1(
b1011111010 &
b1011111010 -
#683000
0(
#684000
b11111001 .
1(
b11111001 &
b11111001 -
#685000
0(
#686000
b110100000 .
1(
b110100000 &
b110100000 -
#687000
0(
#688000
b1101100110 .
1(
b1101100110 &
b1101100110 -
#689000
0(
#690000
b1000000001 .
1(
b1000000001 &
b1000000001 -
#691000
0(
#692000
b0 .
1(
b0 &
b0 -
#693000
0(
#694000
b111111111 .
1(
b111111111 &
b111111111 -
#695000
0(
#696000
b10011010 .
1(
b10011010 &
b10011010 -
#697000
0(
#698000
b1001100000 .
1(
b1001100000 &
b1001100000 -
#699000
0(
#700000
b1100000111 .
1(
b1100000111 &
b1100000111 -
#701000
0(
#702000
b100000110 .
1(
b100000110 &
b100000110 -
#703000
0(
#704000
b11111001 .
1(
b11111001 &
b11111001 -
#705000
0(
#706000
b1110010100 .
1(
b1110010100 &
b1110010100 -
#707000
0(
#708000
b1101100110 .
1(
b1101100110 &
b1101100110 -
#709000
0(
#710000
b1101 .
1(
b1101 &
b1101 -
#711000
0(
#712000
b0 .
1(
b0 &
b0 -
#713000
0(
#714000
b1111110011 .
1(
b1111110011 &
b1111110011 -
#715000
0(
#716000
b10011010 .
1(
b10011010 &
b10011010 -
#717000
0(
#718000
b1101100 .
1(
b1101100 &
b1101100 -
#719000
0(
#720000
b1100000111 .
1(
b1100000111 &
b1100000111 -
#721000
0(
#722000
b1011111010 .
1(
b1011111010 &
b1011111010 -
#723000
0(
#724000
b11111001 .
1(
b11111001 &
b11111001 -
#725000
0(
#726000
b110100000 .
1(
b110100000 &
b110100000 -
#727000
0(
#728000
b1101100110 .
1(
b1101100110 &
b1101100110 -
#729000
0(
#730000
b1000000001 .
1(
b1000000001 &
b1000000001 -
#731000
0(
#732000
b0 .
1(
b0 &
b0 -
#733000
0(
#734000
b111111111 .
1(
b111111111 &
b111111111 -
#735000
0(
#736000
b10011010 .
1(
b10011010 &
b10011010 -
#737000
0(
#738000
b1001100000 .
1(
b1001100000 &
b1001100000 -
#739000
0(
#740000
b1100000111 .
1(
b1100000111 &
b1100000111 -
#741000
0(
#742000
b100000110 .
1(
b100000110 &
b100000110 -
#743000
0(
#744000
b11111001 .
1(
b11111001 &
b11111001 -
#745000
0(
#746000
b1110010100 .
1(
b1110010100 &
b1110010100 -
#747000
0(
#748000
b1101100110 .
1(
b1101100110 &
b1101100110 -
#749000
0(
#750000
b1101 .
1(
b1101 &
b1101 -
#751000
0(
#752000
b0 .
1(
b0 &
b0 -
#753000
0(
#754000
b1111110011 .
1(
b1111110011 &
b1111110011 -
#755000
0(
#756000
b10011010 .
1(
b10011010 &
b10011010 -
#757000
0(
#758000
b1101100 .
1(
b1101100 &
b1101100 -
#759000
0(
#760000
b1100000111 .
1(
b1100000111 &
b1100000111 -
#761000
0(
#762000
b1011111010 .
1(
b1011111010 &
b1011111010 -
#763000
0(
#764000
b11111001 .
1(
b11111001 &
b11111001 -
#765000
0(
#766000
b110100000 .
1(
b110100000 &
b110100000 -
#767000
0(
#768000
b1101100110 .
1(
b1101100110 &
b1101100110 -
#769000
0(
#770000
b1000000001 .
1(
b1000000001 &
b1000000001 -
#771000
0(
#772000
1(
b0 +
#773000
0(
#774000
1(
b1 +
b0 &
b0 -
0"
b10 p
#775000
0(
#776000
1(
b111111111 &
b111111111 -
#777000
0(
#778000
1(
b10011010 &
b10011010 -
#779000
0(
